…
Observations are the level of items in orders by user. There are user /
order variables – user ID, order ID, order day, and order hour. There
are also item variables – name, aisle, department, and some numeric
codes.

How many aisles, and which are most items from?

``` r
instacart %>% 
    count(aisle) %>% 
    arrange(desc(n))
```

    ## # A tibble: 134 x 2
    ##    aisle                              n
    ##    <chr>                          <int>
    ##  1 fresh vegetables              150609
    ##  2 fresh fruits                  150473
    ##  3 packaged vegetables fruits     78493
    ##  4 yogurt                         55240
    ##  5 packaged cheese                41699
    ##  6 water seltzer sparkling water  36617
    ##  7 milk                           32644
    ##  8 chips pretzels                 31269
    ##  9 soy lactosefree                26240
    ## 10 bread                          23635
    ## # … with 124 more rows
…
  mutate(
    day = as.factor(day),
    minute_of_the_day = as.integer(minute_of_the_day)
  ) %>% 
  mutate(
    weekday_vs_weekend =
      case_when(day_num == 1:5 ~ "weekday", day_num == 0 ~ "weekend", day_num == 6 ~"weekend"),
    weekday_vs_weekend = as.factor(weekday_vs_weekend)
  ) %>% 
  relocate(week, day, day_num, weekday_vs_weekend, minute_of_the_day) %>% 
  arrange(week, day_num, minute_of_the_day)
accel_tidy
```

    ## # A tibble: 50,400 x 7
    ##     week day    day_num weekday_vs_weeke… minute_of_the_d… day_id activity_count
    ##    <int> <fct>    <int> <fct>                        <int>  <int>          <dbl>
    ##  1     1 Sunday       0 weekend                          1      4              1
    ##  2     1 Sunday       0 weekend                          2      4              1
    ##  3     1 Sunday       0 weekend                          3      4              1
    ##  4     1 Sunday       0 weekend                          4      4              1
    ##  5     1 Sunday       0 weekend                          5      4              1
    ##  6     1 Sunday       0 weekend                          6      4              1
    ##  7     1 Sunday       0 weekend                          7      4              1
    ##  8     1 Sunday       0 weekend                          8      4              1
    ##  9     1 Sunday       0 weekend                          9      4              1
    ## 10     1 Sunday       0 weekend                         10      4              1
    ## # … with 50,390 more rows
…
ny_noaa %>% 
  count(snow) %>% 
  arrange(desc(n))
```

    ## # A tibble: 252 x 2
    ##     snow       n
    ##    <int>   <int>
    ##  1     0 1168636
    ##  2    NA  172647
    ##  3    25   17567
    ##  4    13   13716
    ##  5    51   10366
    ##  6     5    5963
    ##  7    76    5903
    ##  8     8    5782
    ##  9     3    5617
    ## 10    38    5582
    ## # … with 242 more rows
…
